Angle,Range,Intensity
348.2031258,0,1008
348.9687627,0,1008
349.7031174,0,1008
350.4531268,0,1008
351.2031362,0,1008
351.9531183,0,1008
352.7031277,0,1008
353.4375096,0,1008
354.1874917,0,1008
354.9375011,0,1008
355.6875105,0,1008
356.4374926,0,1008
357.187502,0,1008
357.921884,0,1008
358.6718661,0,1008
359.4218755,0,1008
0.1718750003,0,1008
0.9218750079,0,1008
1.656250011,0,1008
2.406250031,0,1008
3.156250052,0,1008
3.906250073,0,1008
4.656250094,0,1008
5.406250115,0,1008
6.140624797,0,1008
6.890624818,0,1008
7.640625266,0,1008
1.765625031,0.9054999948,1016
9.140625308,0,1008
9.875000417,0,1008
10.62499958,0,1008
11.37499961,0,1008
12.12499963,0,1008
12.87499965,0,1008
13.62499967,0,1008
14.35937478,0,1008
15.10937565,0,1008
15.85937482,0,1008
16.60937569,0,1008
17.35937486,0,1008
18.10937574,0,1008
18.8593749,0,1008
19.59375001,0,1008
20.34374918,0,1008
21.07812429,0,1008
21.82812516,0,1008
19.57812425,0.2485000044,1016
20.20312583,0.2540000081,1008
24.06250031,0,1008
24.81249948,0,1008
25.54687459,0,1008
26.29687546,0,1008
27.04687463,0,1008
27.78124974,0,1008
28.53125062,0,1008
29.26562573,0,1008
30.01562489,0,1008
30.76562406,0,1008
31.49999917,0,1008
25.60937424,0.9194999933,1016
33.00000092,0,1008
33.73437603,0,1008
34.48437519,0,1008
35.23437436,0,1008
35.96874947,0,1008
36.71874864,0,1008
37.46875122,0,1008
38.20312633,0,1008
38.9531255,0,1008
39.68750061,0,1008
40.43749977,0,1008
41.18749894,0,1008
41.92187405,0,1008
42.67187663,0,1008
43.4218758,0,1008
44.15625091,0,1008
44.90625008,0,1008
45.65624924,0,1008
46.39062435,0,1008
47.14062352,0,1008
47.8906261,0,1008
48.57812562,0,1008
49.31250073,0,1008
50.0624999,0,1008
50.81249907,0,1008
51.54687418,0,1008
52.29687334,0,1008
48.78124862,0.3314999938,1016
53.78125103,0,1008
54.5312502,0,1008
55.28124937,0,1008
56.01562448,0,1008
56.76562364,0,1008
57.51562281,0,1008
58.26562539,0,1008
59.0000005,0,1008
59.75000309,0,1008
60.49999884,0,1008
57.50000217,0.2904999852,1016
58.23437728,0.2919999957,1008
59.0000005,0.2910000086,1008
63.46874739,0,1008
64.21874997,0,1008
64.96875255,0,1008
61.703123,0.3104999959,1016
62.35937441,0.3170000017,1008
67.203126,0,1008
67.95312175,0,1008
68.68749686,0,1008
69.43749944,0,1008
70.18750202,0,1008
70.92187713,0,1008
71.67187289,0,1008
65.12499996,1.779500008,1016
65.87500254,1.734500051,1016
66.64062577,1.718250036,1012
67.39062835,1.719249964,1012
68.10937599,1.75425005,1012
68.85937174,1.739249945,1012
69.6250018,1.71724999,1012
70.37499755,1.718000054,1008
71.59374918,1.050500035,1016
79.14062327,0,1008
72.62499846,1.713500023,1016
73.34375293,1.749250054,1012
74.07812804,1.791499972,1016
74.81250315,1.815000057,1008
75.70312567,1.490499973,1016
76.46874889,1.469249964,1012
77.60937682,0.9904999733,1016
78.35937257,0.9869999886,1008
79.12500263,0.9732499719,1012
79.85937774,0.980250001,1012
80.60937349,0.9682499766,1012
81.37499671,0.9642500281,1012
82.10937182,0.9610000253,1008
82.85937441,0.9549999833,1008
83.62499763,0.9492499828,1012
84.35937274,0.9470000267,1008
85.1250028,0.9419999719,1008
85.87499855,0.9330000281,1008
86.59375301,0.9520000219,1008
86.9218753,1.400500059,1016
87.67187788,1.411249995,1012
88.39062552,1.42324996,1012
89.1406281,1.443249941,1012
89.87500321,1.466249943,1012
90.57812338,1.502249956,1012
98.50000217,0,1008
99.23437728,0,1008
99.98437303,0,1008
100.7343756,0,1008
94.12499963,1.904500008,1016
94.89062286,1.891250014,1012
102.9687491,0,1008
103.7031242,0,1008
97.09374818,1.95449996,1016
97.82812329,2.010999918,1008
105.9374976,0,1008
99.28125287,2.141499996,1016
107.4375028,0,1008
100.6406244,2.932499886,1016
101.4375026,2.554500103,1016
102.2187533,2.417500019,1016
102.9531216,2.480499983,1016
103.609373,2.963500023,1016
104.375003,2.860500097,1016
105.0937507,2.973500013,1016
105.8750014,2.799499989,1016
106.6875002,2.42050004,1016
107.4218753,2.467000008,1008
108.1406229,2.646500111,1016
108.8281225,3.024499893,1016
109.5624976,3.052000046,1008
110.3125002,3.068000078,1008
111.0625027,3.085999966,1008
111.7968778,3.105000019,1008
112.531253,3.111000061,1008
113.2812487,3.138999939,1008
121.625001,0,1008
122.3749967,0,1008
123.1093787,0,1008
123.8593744,0,1008
124.6093702,0,1008
125.3593796,0,1008
126.0937479,0,1008
126.8437436,0,1008
119.9843759,3.315500021,1016
128.3437488,0,1008
121.4531261,3.378499985,1016
129.8281265,0,1008
130.5781222,0,1008
131.3281316,0,1008
132.0624999,0,1008
132.8124957,0,1008
125.921873,3.536499977,1016
134.3125008,0,1008
135.0468691,0,1008
128.1562464,3.661499977,1016
136.5468743,0,1008
137.29687,0,1008
130.4062473,3.779500008,1016
131.1406293,3.816999912,1008
131.890625,3.747499943,1016
140.2812529,0,1008
141.0312486,0,1008
141.7656306,0,1008
142.5156263,0,1008
143.2656221,0,1008
144.000004,0,1008
144.7499998,0,1008
145.4843817,0,1008
146.2343775,0,1008
146.9843732,0,1008
147.7187551,0,1008
148.4687509,0,1008
149.2031192,0,1008
149.9531286,0,1008
143.0156235,4.167500019,1016
151.4375063,0,1008
152.187502,0,1008
152.9218703,0,1008
153.6718797,0,1008
146.6562509,5.283500195,1016
155.1562438,0,1008
155.9062532,0,1008
156.6406214,0,1008
157.3906309,0,1008
158.1249991,0,1008
158.8749949,0,1008
159.6250043,0,1008
160.3593726,0,1008
153.3125025,6.738500118,1016
154.0468708,6.546500206,1016
162.593746,0,1008
163.3437554,0,1008
156.2812442,6.479000092,1008
164.8281195,0,1008
165.5625014,0,1008
166.3124972,0,1008
167.0625066,0,1008
167.8125023,0,1008
168.5468706,0,1008
169.29688,0,1008
170.0468758,0,1008
170.7968715,0,1008
171.5468809,0,1008
172.2968767,0,1008
173.0468724,0,1008
173.7968682,0,1008
174.5468776,0,1008
175.2968734,0,1008
176.0468691,0,1008
176.7968785,0,1008
177.5468743,0,1008
178.29687,0,1008
171.3437511,4.310500145,1016
179.7968752,0,1008
173.0000037,2.845499992,1016
173.593752,4.323500156,1016
174.3437478,4.321000099,1008
175.0781297,4.308000088,1008
175.8281255,4.309000015,1008
176.5781212,4.309000015,1008
185.0312453,0,1008
185.7812547,0,1008
178.8437496,4.218500137,1016
179.5937454,4.231249809,1012
180.2968724,4.84649992,1016
181.0937505,4.188499928,1016
189.5312471,0,1008
190.2812565,0,1008
191.0312523,0,1008
191.781248,0,1008
192.5312438,0,1008
193.2812532,0,1008
194.031249,0,1008
194.7812447,0,1008
187.8281258,4.337500095,1016
188.5781215,4.333000183,1008
189.328131,4.328999996,1008
190.0937542,4.352000237,1008
190.8281225,4.359000206,1008
191.5781182,4.364999771,1008
192.3281276,4.375999928,1008
200.7812517,0,1008
201.5312475,0,1008
202.2812432,0,1008
203.0312526,0,1008
203.7812484,0,1008
204.5312441,0,1008
205.2812535,0,1008
206.0312493,0,1008
199.1874954,3.144500017,1016
199.9375048,3.15199995,1008
200.6875005,3.174000025,1008
201.4374963,3.181999922,1008
202.1875057,3.203999996,1008
202.921874,3.226000071,1008
203.6718697,3.246000051,1008
204.4218791,3.260999918,1008
205.1562474,3.286999941,1008
205.9062432,3.299999952,1008
206.6562526,3.322999954,1008
207.4062483,3.345000029,1008
208.1406303,3.365999937,1008
216.5156307,0,1008
217.2656264,0,1008
210.4218725,3.162499905,1016
211.1718682,3.171999931,1008
211.9218776,3.203000069,1008
212.6562459,3.244999886,1008
213.4062553,3.252000093,1008
214.1562511,3.292000055,1008
214.9062468,3.315999985,1008
215.6562563,3.349999905,1008
216.3906245,3.381000042,1008
217.1406203,3.414000034,1008
217.8906297,3.447000027,1008
218.6406254,3.493000031,1008
219.3749937,3.516000032,1008
220.0781207,3.548000097,1008
220.8281301,3.610500097,1016
221.5781259,3.638000011,1008
222.3124942,3.690000057,1008
223.0625036,3.739000082,1008
223.8124993,3.778000116,1008
224.5624951,3.822999954,1008
232.9843642,0,1008
233.7343736,0,1008
226.812496,3.972500086,1016
235.2343651,0,1008
235.9843745,0,1008
236.734384,0,1008
237.4999935,0,1008
238.2500029,0,1008
239.0000123,0,1008
239.7499944,0,1008
240.5000038,0,1008
241.2500133,0,1008
241.9999954,0,1008
235.0468628,4.702499866,1016
235.7968722,4.645999908,1008
236.5468816,4.611999989,1008
237.2968637,4.56799984,1008
245.7656152,0,1008
238.81251,4.501999855,1008
239.5781196,4.462999821,1008
240.328129,4.407999992,1008
241.0781384,4.393000126,1008
241.8281205,4.368999958,1008
242.5781299,4.335999966,1008
243.328112,4.296999931,1008
244.0781214,4.275000095,1008
244.8593857,4.236000061,1008
245.6093678,4.210000038,1008
246.3593772,4.191999912,1008
247.1093867,4.183000088,1008
247.8593688,4.160999775,1008
248.6093782,4.125,1008
249.3749877,4.092999935,1008
250.1249971,4.078000069,1008
250.8593791,4.068999767,1008
251.6093885,4.047999859,1008
252.3593706,4.026000023,1008
253.10938,4.001999855,1008
261.5312491,0,1008
262.2656311,0,1008
263.0156132,0,1008
263.7656226,0,1008
264.5000045,0,1008
265.2499866,0,1008
265.999996,0,1008
266.734378,0,1008
267.4843874,0,1008
268.218742,0,1008
268.9687514,0,1008
269.7187608,0,1008
270.4531154,0,1008
271.2031248,0,1008
264.2812472,3.889499903,1016
265.0312566,3.842999935,1008
265.7812387,3.842999935,1008
266.5312481,3.835999966,1008
267.2656301,3.821000099,1008
268.0156122,3.821000099,1008
268.7499941,3.862999916,1008
271.9218793,0.4494999945,1016
272.7187438,0.4402500093,1012
273.5156357,0.430249989,1012
274.2656177,0.430249989,1012
275.0625096,0.4232499897,1012
275.9062565,0.4092499912,1012
276.703121,0.4032500088,1012
277.4843854,0.3992500007,1012
278.2343675,0.3962500095,1012
279.0156318,0.3922500014,1012
279.7499864,0.3942500055,1012
280.4375133,0.4012500048,1012
281.0937579,0.4142499864,1012
281.734375,0.4292500019,1012
282.2343721,0.4735000134,1016
282.9374991,0.4792500138,1012
283.6718811,0.482250005,1012
284.406263,0.4842500091,1012
285.1875,0.4782499969,1012
285.9843645,0.4682500064,1012
286.7500014,0.4662500024,1012
287.5000108,0.4672499895,1012
288.2343655,0.4692499936,1012
288.9531199,0.4742499888,1012
289.6718744,0.4792500138,1012
290.3437464,0.4920000136,1008
294.1406213,0.2234999985,1016
294.9375131,0.2212499976,1012
295.8124877,0.2162500024,1012
296.7812544,0.2084999979,1016
297.7187388,0.2022500038,1012
298.6249956,0.1972499937,1012
299.4687426,0.1942500025,1012
300.4218818,0.1882500052,1012
301.3749937,0.1822499931,1012
302.2031132,0.1802500039,1012
303.03126,0.1782499999,1012
303.8281245,0.1772499979,1012
304.5781339,0.1772499979,1012
305.328116,0.1772499979,1012
306.031243,0.1782499999,1012
306.703115,0.1802500039,1012
307.3437594,0.1832499951,1012
307.9374941,0.1877499968,1020
308.1249965,0.2045000046,1016
308.734386,0.2092500031,1012
309.3750031,0.2132499963,1012
310.0625026,0.2152500004,1012
310.7343746,0.2182500064,1012
311.4218742,0.2210000008,1008
314.5468769,0,1008
315.2968864,0,1008
316.0468684,0,1008
316.7968779,0,1008
317.5624874,0,1008
312.5312608,0.5554999709,1016
313.2812429,0.555249989,1012
314.0468798,0.5502499938,1012
314.7187518,0.5652499795,1012
315.5156163,0.5550000072,1008
316.2812532,0.5502499938,1012
317.0156352,0.5512499809,1012
317.7031347,0.5680000186,1008
318.4999992,0.555249989,1012
319.2343811,0.5542500019,1012
319.9687631,0.5592499971,1012
320.7500001,0.5500000119,1008
321.484382,0.550999999,1008
322.2343641,0.5529999733,1008
322.9062635,0.5730000138,1008
323.5781356,0.5882499814,1012
324.3124902,0.5922499895,1012
325.1406369,0.5702499747,1012
325.9062465,0.5642499924,1012
326.6875109,0.5562499762,1012
327.437493,0.5562499762,1012
328.1562474,0.55825001,1012
328.9218843,0.5542500019,1012
329.7656312,0.534250021,1012
330.4531308,0.5422499776,1012
331.2031129,0.5422499776,1012
331.9531223,0.5422499776,1012
332.7187592,0.5372499824,1012
333.4843687,0.5332499743,1012
334.2187507,0.5352500081,1012
334.9843875,0.528249979,1012
335.7656246,0.5212500095,1012
336.4687516,0.5322499871,1012
337.0468861,0.5712500215,1012
337.7343856,0.5892500281,1012
344.3749961,0,1008
345.109378,0,1008
345.8593874,0,1008
346.6093695,0,1008
347.3750064,0,1008